[
    {
        "id": "module-1",
        "title": "Création d'un projet",
        "description": "Installation des logiciels et création de projets avec la plateforme Next.js",
        "pages": [
            "introduction",
            "installation",
            "librairie",
            "next-js",
            "rendu-react",
            "struct-projet",
            "mode-strict",
            "normalize-css"
        ]
    },
    {
        "id": "module-2",
        "title": "Les composants et props",
        "description": "Programmation d'un composant React pouvant recevoir et afficher des données avec les props.",
        "pages": [
            "composant-props",
            "fragment",
            "props-children",
            "css-module",
            "next-font",
            "next-image",
            "next-layout"
        ]
    },
    {
        "id": "module-3",
        "title": "État, événement et affichage spécialisé",
        "description": "Démontration de l'utilisation d'un état de composant, de gestion d'événement, d'affichage conditionnel et d'affichage répété.",
        "pages": [
            "hook-intro",
            "hook-etat",
            "evenement",
            "condition"
        ]
    },
    {
        "id": "module-4",
        "title": "Cycle de vie d'un composant",
        "description": "Présentation du cycle de vie d'un composant et des méthodes pouvant être exécutées aux différentes étapes du cycle de vie.",
        "pages": [
            "boucle",
            "cycle-vie",
            "hook-effet"
        ]
    },
    {
        "id": "module-5",
        "title": "Routage client",
        "description": "Démonstration de l'utilisation du routage de Next.js pour définir les routes sur le côté client et facilité le changement de pages.",
        "pages": [
            "routage-client",
            "link",
            "use-router"
        ]
    },
    {
        "id": "module-6",
        "title": "Metadonnées et optimisation pour engins de recherche (SEO)",
        "description": "Démonstration d'outils et de librairies pour évaluer et optimiser les sites web avec les engins de recherche.",
        "pages": [
            "seo",
            "robottxt",
            "sitemap",
            "prerender",
            "metadata",
            "opengraph",
            "performance",
            "lighthouse"
        ]
    },
    {
        "id": "module-7",
        "title": "Formulaires",
        "description": "Présentation de différentes façon d'utiliser les formulaires avec React dépendant de votre situation",
        "pages": [
            "refs",
            "form-non-control",
            "form-validation",
            "form-control",
            "form-library",
            "fetch",
            "next-api",
            "send-email"
        ]
    },
    {
        "id": "module-8",
        "title": "Contextes",
        "description": "Démonstration du partage global d'information dans une application à l'aide des contextes et des hooks personnalisés.",
        "pages": [
            "contexte",
            "hook-perso",
            "i18n",
            "react-intl",
            "local-storage"
        ]
    },
    {
        "id": "module-9",
        "title": "Rendus avec Next.js",
        "description": "Présentation des différentes formes de rendu avec le build, le client et le serveur de Next.js.",
        "pages": [
            "next-static",
            "next-route-dynamique",
            "next-api",
            "next-middleware",
            "next-response",
            "next-rendu-serveur",
            "next-export",
            "next-export-image"
        ]
    },
    {
        "id": "module-10",
        "title": "Nouvelles fonctionnalités de Next.js",
        "description": "Introduction aux nouvelles fonctionnalités à venir de Next.js, comme le répertoire app et l'utilisation des nouvelles mises en page.",
        "pages": [
            "next-app-directory"
        ]
    },
    {
        "id": "module-11",
        "title": "Progressive Web App (PWA)",
        "description": "Introduction aux applications web progressive, un format d'application qui utilise les possibilités des applications de bureau tout en gardant la facilité et la flexibilité du web.",
        "pages": [
            "pwa-intro",
            "pwa-installation",
            "pwa-manifest",
            "pwa-manifest-generator",
            "pwa-service-worker",
            "pwa-next",
            "pwa-next-exemple",
            "pwa-fenetre-install"
        ]
    }
]